{
  "branchPrefix": "renovate/",
  "username": "ggrossetie",
  "gitAuthor": "Guillaume Grossetie <ggrossetie@gmail.com>",
  "platform": "gitlab",
  "separateMajorMinor": true,
  "extends": [
    ":preserveSemverRanges",
    "group:all",
    ":maintainLockFilesMonthly"
  ],
  "packageRules": [
    {
      "matchPackageNames": [
        "highlight.js",
        "highlightjs-line-numbers.js"
      ],
      "matchUpdateTypes": [
        "major"
      ],
      "enabled": false
    }
  ],
  "lockFileMaintenance": {
    "extends": [
      "group:all"
    ],
    "commitMessageAction": "Update"
  }
}
